…
#### Trips per month

``` r
total_trips_v2 %>%
  select(member_casual, month) %>%
  group_by(month, member_casual) %>%
  count() %>%
  arrange()
```

    ## # A tibble: 24 × 3
    ## # Groups:   month, member_casual [24]
    ##    month member_casual      n
    ##    <ord> <chr>          <int>
    ##  1 jan   casual         12576
    ##  2 jan   member         67518
    ##  3 febr  casual         15114
    ##  4 febr  member         74019
    ##  5 márc  casual         67011
    ##  6 márc  member        148775
    ##  7 ápr   casual         91762
    ##  8 ápr   member        180617
    ##  9 máj   casual        219976
    ## 10 máj   member        282248
    ## # … with 14 more rows
…
